ALEPH_1991_S2435284
ALEPH_1996_S3196992
ALEPH_1996_S3486095
ALEPH_1999_S4193598
ALEPH_2001_S4656318
ALEPH_2002_S4823664
ALEPH_2004_S5765862
ALICE_2010_S8624100
ALICE_2010_S8625980
ALICE_2010_S8706239
ALICE_2011_S8909580
ALICE_2011_S8945144
ALICE_2012_I1181770
ARGUS_1993_S2653028
ARGUS_1993_S2669951
ARGUS_1993_S2789213
ATLAS_2010_CONF_2010_049
ATLAS_2010_S8591806
ATLAS_2010_S8817804
ATLAS_2010_S8894728
ATLAS_2010_S8914702
ATLAS_2010_S8918562
ATLAS_2010_S8919674
ATLAS_2011_CONF_2011_090
ATLAS_2011_CONF_2011_098
ATLAS_2011_I894867
ATLAS_2011_I919017
ATLAS_2011_I921594
ATLAS_2011_I925932
ATLAS_2011_I926145
ATLAS_2011_I930220
ATLAS_2011_I944826
ATLAS_2011_I945498
ATLAS_2011_I954993
ATLAS_2011_S8924791
ATLAS_2011_S8971293
ATLAS_2011_S8983313
ATLAS_2011_S8994773
ATLAS_2011_S9002537
ATLAS_2011_S9019561
ATLAS_2011_S9035664
ATLAS_2011_S9041966
ATLAS_2011_S9108483
ATLAS_2011_S9120807
ATLAS_2011_S9126244
ATLAS_2011_S9128077
ATLAS_2011_S9131140
ATLAS_2011_S9212183
ATLAS_2011_S9212353
ATLAS_2011_S9225137
ATLAS_2012_CONF_2012_001
ATLAS_2012_CONF_2012_103
ATLAS_2012_CONF_2012_104
ATLAS_2012_CONF_2012_105
ATLAS_2012_CONF_2012_109
ATLAS_2012_CONF_2012_153
ATLAS_2012_I1082009
ATLAS_2012_I1082936
ATLAS_2012_I1083318
ATLAS_2012_I1084540
ATLAS_2012_I1091481
ATLAS_2012_I1093734
ATLAS_2012_I1093738
ATLAS_2012_I1094061
ATLAS_2012_I1094564
ATLAS_2012_I1094568
ATLAS_2012_I1095236
ATLAS_2012_I1112263
ATLAS_2012_I1117704
ATLAS_2012_I1118269
ATLAS_2012_I1119557
ATLAS_2012_I1124167
ATLAS_2012_I1125575
ATLAS_2012_I1125961
ATLAS_2012_I1126136
ATLAS_2012_I1180197
ATLAS_2012_I1183818
ATLAS_2012_I1186556
ATLAS_2012_I1188891
ATLAS_2012_I1190891
ATLAS_2012_I1199269
ATLAS_2012_I1203852
ATLAS_2012_I1204447
ATLAS_2012_I1204784
ATLAS_2012_I943401
ATLAS_2012_I946427
ATLAS_2013_I1190187
ATLAS_2013_I1217867
ATLAS_2013_I1230812
ATLAS_2013_I1243871
ATLAS_2013_I1263495
ATLAS_2014_I1268975
ATLAS_2014_I1279489
ATLAS_2014_I1282441
ATLAS_2014_I1298811
ATLAS_2014_I1304688
ATLAS_2014_I1307756
BABAR_2003_I593379
BABAR_2005_S6181155
BABAR_2007_S6895344
BABAR_2007_S7266081
BABAR_2013_I1238276
BELLE_2001_S4598261
BELLE_2006_S6265367
BELLE_2008_I786560
BELLE_2013_I1216515
CDF_1988_S1865951
CDF_1990_S2089246
CDF_1993_S2742446
CDF_1994_S2952106
CDF_1996_S3108457
CDF_1996_S3349578
CDF_1996_S3418421
CDF_1997_S3541940
CDF_1998_S3618439
CDF_2000_S4155203
CDF_2000_S4266730
CDF_2001_S4517016
CDF_2001_S4563131
CDF_2001_S4751469
CDF_2002_S4796047
CDF_2004_S5839831
CDF_2005_S6080774
CDF_2005_S6217184
CDF_2006_S6450792
CDF_2006_S6653332
CDF_2007_S7057202
CDF_2008_S7540469
CDF_2008_S7541902
CDF_2008_S7782535
CDF_2008_S7828950
CDF_2008_S8093652
CDF_2008_S8095620
CDF_2009_NOTE_9936
CDF_2009_S8057893
CDF_2009_S8233977
CDF_2009_S8383952
CDF_2009_S8436959
CDF_2010_S8591881_DY
CDF_2010_S8591881_QCD
CDF_2012_NOTE10874
CLEO_2004_S5809304
CMS_2010_S8547297
CMS_2010_S8656010
CMS_2011_I954992
CMS_2011_S8884919
CMS_2011_S8941262
CMS_2011_S8950903
CMS_2011_S8957746
CMS_2011_S8968497
CMS_2011_S8973270
CMS_2011_S8978280
CMS_2011_S9086218
CMS_2011_S9088458
CMS_2011_S9120041
CMS_2011_S9215166
CMS_2012_I1087342
CMS_2012_I1090423
CMS_2012_I1102908
CMS_2012_I1107658
CMS_2012_I1184941
CMS_2012_I1193338
CMS_2012_I941555
CMS_2012_PAS_QCD_11_010
CMS_2013_I1209721
CMS_2013_I1218372
CMS_2013_I1224539_DIJET
CMS_2013_I1224539_WJET
CMS_2013_I1224539_ZJET
CMS_2013_I1256943
CMS_2013_I1258128
CMS_2013_I1261026
CMS_2013_I1265659
CMS_2013_I1272853
CMS_2013_I1273574
CMS_QCD_10_024
CMSTOTEM_2014_I1294140
D0_1996_S3214044
D0_1996_S3324664
D0_2000_I499943
D0_2000_S4480767
D0_2001_S4674421
D0_2004_S5992206
D0_2006_S6438750
D0_2007_S7075677
D0_2008_S6879055
D0_2008_S7554427
D0_2008_S7662670
D0_2008_S7719523
D0_2008_S7837160
D0_2008_S7863608
D0_2009_S8202443
D0_2009_S8320160
D0_2009_S8349509
D0_2010_S8566488
D0_2010_S8570965
D0_2010_S8671338
D0_2010_S8821313
D0_2011_I895662
DELPHI_1995_S3137023
DELPHI_1996_S3430090
DELPHI_1999_S3960137
DELPHI_2000_S4328825
DELPHI_2002_069_CONF_603
DELPHI_2003_WUD_03_11
E735_1998_S3905616
EXAMPLE
EXAMPLE_CUTS
H1_1994_S2919893
H1_1995_S3167097
H1_2000_S4129130
JADE_1998_S3612880
JADE_OPAL_2000_S4300807
LHCB_2010_I867355
LHCB_2010_S8758301
LHCB_2011_I917009
LHCB_2011_I919315
LHCB_2012_I1119400
LHCB_2013_I1208105
LHCB_2013_I1218996
LHCF_2012_I1115479
MC_DIJET
MC_DIPHOTON
MC_ELECTRONS
MC_GENERIC
MC_HFJETS
MC_HINC
MC_HJETS
MC_HKTSPLITTINGS
MC_IDENTIFIED
MC_JetAnalysis
MC_JETS
MC_JetSplittings
MC_JETTAGS
MC_KTSPLITTINGS
MC_LEADJETUE
MC_MUONS
MC_ParticleAnalysis
MC_PDFS
MC_PHOTONINC
MC_PHOTONJETS
MC_PHOTONJETUE
MC_PHOTONKTSPLITTINGS
MC_PHOTONS
MC_PRINTEVENT
MC_QCD_PARTONS
MC_SUSY
MC_TAUS
MC_TTBAR
MC_VH2BB
MC_WINC
MC_WJETS
MC_WKTSPLITTINGS
MC_WPOL
MC_WWINC
MC_WWJETS
MC_WWKTSPLITTINGS
MC_XS
MC_ZINC
MC_ZJETS
MC_ZKTSPLITTINGS
MC_ZZINC
MC_ZZJETS
MC_ZZKTSPLITTINGS
OPAL_1993_S2692198
OPAL_1994_S2927284
OPAL_1995_S3198391
OPAL_1996_S3257789
OPAL_1997_S3396100
OPAL_1997_S3608263
OPAL_1998_S3702294
OPAL_1998_S3749908
OPAL_1998_S3780481
OPAL_2000_S4418603
OPAL_2001_S4553896
OPAL_2002_S5361494
OPAL_2004_S6132243
PDG_HADRON_MULTIPLICITIES
PDG_HADRON_MULTIPLICITIES_RATIOS
SFM_1984_S1178091
SLD_1996_S3398250
SLD_1999_S3743934
SLD_2002_S4869273
SLD_2004_S5693039
STAR_2006_S6500200
STAR_2006_S6860818
STAR_2006_S6870392
STAR_2008_S7869363
STAR_2008_S7993412
STAR_2009_UE_HELEN
TASSO_1990_S2148048
TOTEM_2012_002
TOTEM_2012_I1115294
UA1_1990_S2044935
UA5_1982_S875503
UA5_1986_S1583476
UA5_1987_S1640666
UA5_1988_S1867512
UA5_1989_S1926373
ZEUS_2001_S4815815
